layered_testbench_with_testplan/transcript
# vsim -c -coverage -sv_seed random -do " set NoQuitOnFinish 1; run -all; do save_coverage.do abc_random_statistics_transaction; quit -f;" "+GEN_TRANS_TYPE=abc_random_statistics_transaction" optimized_debug_top_tb 
# Start time: 10:31:39 on Mar 30,2023
# //  Questa Sim
# //  Version 2022.2_1 linux May 19 2022
# //
# //  Copyright 1991-2022 Mentor Graphics Corporation
# //  All Rights Reserved.
# //
# //  QuestaSim and its associated documentation contain trade
# //  secrets and commercial or financial information that are the property of
# //  Mentor Graphics Corporation and are privileged, confidential,
# //  and exempt from disclosure under the Freedom of Information Act,
# //  5 U.S.C. Section 552. Furthermore, this information
# //  is prohibited from disclosure under the Trade Secrets Act,
# //  18 U.S.C. Section 1905.
# //
# Loading sv_std.std
# Loading work.abc_if(fast)
# Loading work.ncsu_pkg(fast)
# Loading work.abc_pkg(fast)
# Loading work.first_project_pkg(fast)
# Loading work.top(fast)
# Loading work.abc_if(fast__2)
# Loading work.abc_if(fast__3)
# Loading work.first_dut(fast)
# Sv_Seed = 3962830529
#  set NoQuitOnFinish 1
# 1
#  run -all
# ----------------------------------------------------------------
# //  NCSU Package 
# //  Version 1.0a
# ----------------------------------------------------------------
# 
# 
# NCSU_INFO:Time                    0:ncsu_component::build():  of tst.env.p0_agent.driver called
# NCSU_INFO:Time                    0:ncsu_component::build():  of tst.env.p0_agent.coverage called
# NCSU_INFO:Time                    0:ncsu_component::build():  of tst.env.p0_agent.monitor called
# NCSU_INFO:Time                    0:ncsu_component::build():  of tst.env.p1_agent.driver called
# NCSU_INFO:Time                    0:ncsu_component::build():  of tst.env.p1_agent.monitor called
# NCSU_INFO:Time                    0:ncsu_component::build():  of tst.env.pred called
# NCSU_INFO:Time                    0:ncsu_component::build():  of tst.env.scbd called
# NCSU_INFO:Time                    0:ncsu_component::build():  of tst.env.coverage called
# first_project_pkg.generator.new found +GEN_TRANS_TYPE=abc_random_statistics_transaction
# tst.env.p0_agent.driver name: abc_random_statistics_transaction transaction_count: 0 header:0x2200000000000008 payload:0x'{14575221361800894307, 3927788163786065022, 2520120134790867555, 9828012098763989245, 6784157084652844409, 10995269706273124518, 6775355439158010496, 15603529292737284285} trailer:0x0000000000000000 delay:47
# tst.gen name: abc_random_statistics_transaction transaction_count: 0 header:0x2200000000000008 payload:0x'{14575221361800894307, 3927788163786065022, 2520120134790867555, 9828012098763989245, 6784157084652844409, 10995269706273124518, 6775355439158010496, 15603529292737284285} trailer:0x0000000000000000 delay:47
# tst.env.p0_agent.driver name: abc_random_statistics_transaction transaction_count: 3 header:0x2400000000000002 payload:0x'{15675747225488823636, 6926163692947772174, 12705926427828982419, 2072008174692044250, 10617253688293258156, 9597365282301235439, 13622319776822135546, 4465428530386240680} trailer:0xffffffffffffffff delay: 2
# tst.env.p0_agent.monitor abc_monitor::run() header 0x2200000000000008 payload 0x'{14575221361800894307, 3927788163786065022, 2520120134790867555, 9828012098763989245, 6784157084652844409, 10995269706273124518, 6775355439158010496, 15603529292737284285} trailer 0x0000000000000000 delay 0x2f
# abc_coverage::nb_put() tst.env.p0_agent.coverage called
# tst.env.coverage name: monitored_trans transaction_count: 2 header:0x2200000000000008 payload:0x'{14575221361800894307, 3927788163786065022, 2520120134790867555, 9828012098763989245, 6784157084652844409, 10995269706273124518, 6775355439158010496, 15603529292737284285} trailer:0x0000000000000000 delay:47
# tst.env.pred name: monitored_trans transaction_count: 2 header:0x2200000000000008 payload:0x'{14575221361800894307, 3927788163786065022, 2520120134790867555, 9828012098763989245, 6784157084652844409, 10995269706273124518, 6775355439158010496, 15603529292737284285} trailer:0x0000000000000000 delay:47
# tst.env.scbd nb_transport: expected transaction name: monitored_trans transaction_count: 2 header:0x2200000000000008 payload:0x'{14575221361800894307, 3927788163786065022, 2520120134790867555, 9828012098763989245, 6784157084652844409, 10995269706273124518, 6775355439158010496, 15603529292737284285} trailer:0x0000000000000000 delay:47
# tst.env.p1_agent.monitor abc_monitor::run() header 0x2200000000000008 payload 0x'{14575221361800894307, 3927788163786065022, 2520120134790867555, 9828012098763989245, 6784157084652844409, 10995269706273124518, 6775355439158010496, 15603529292737284285} trailer 0x0000000000000000 delay 0x31
# tst.env.scbd nb_put: actual transaction name: monitored_trans transaction_count: 1 header:0x2200000000000008 payload:0x'{14575221361800894307, 3927788163786065022, 2520120134790867555, 9828012098763989245, 6784157084652844409, 10995269706273124518, 6775355439158010496, 15603529292737284285} trailer:0x0000000000000000 delay:49
# tst.env.scbd abc_transaction MATCH!
# tst.env.p0_agent.monitor abc_monitor::run() header 0x2400000000000002 payload 0x'{15675747225488823636, 6926163692947772174, 12705926427828982419, 2072008174692044250, 10617253688293258156, 9597365282301235439, 13622319776822135546, 4465428530386240680} trailer 0xffffffffffffffff delay 0x02
# abc_coverage::nb_put() tst.env.p0_agent.coverage called
# tst.env.coverage name: monitored_trans transaction_count: 4 header:0x2400000000000002 payload:0x'{15675747225488823636, 6926163692947772174, 12705926427828982419, 2072008174692044250, 10617253688293258156, 9597365282301235439, 13622319776822135546, 4465428530386240680} trailer:0xffffffffffffffff delay: 2
# tst.env.pred name: monitored_trans transaction_count: 4 header:0x2400000000000002 payload:0x'{15675747225488823636, 6926163692947772174, 12705926427828982419, 2072008174692044250, 10617253688293258156, 9597365282301235439, 13622319776822135546, 4465428530386240680} trailer:0xffffffffffffffff delay: 2
# tst.env.scbd nb_transport: expected transaction name: monitored_trans transaction_count: 4 header:0x2400000000000002 payload:0x'{15675747225488823636, 6926163692947772174, 12705926427828982419, 2072008174692044250, 10617253688293258156, 9597365282301235439, 13622319776822135546, 4465428530386240680} trailer:0xffffffffffffffff delay: 2
# tst.gen name: abc_random_statistics_transaction transaction_count: 3 header:0x2400000000000002 payload:0x'{15675747225488823636, 6926163692947772174, 12705926427828982419, 2072008174692044250, 10617253688293258156, 9597365282301235439, 13622319776822135546, 4465428530386240680} trailer:0xffffffffffffffff delay: 2
# tst.env.p0_agent.driver name: abc_random_statistics_transaction transaction_count: 7 header:0x2400000000000001 payload:0x'{1467229100902232594, 7740224530706743205, 16338765942227310977, 15363529054502221040, 13072810197035783362, 15857535179559282538, 10696217793554211312, 5481926471155767219} trailer:0x0000000000000000 delay: 6
# tst.env.p1_agent.monitor abc_monitor::run() header 0x2400000000000002 payload 0x'{15675747225488823636, 6926163692947772174, 12705926427828982419, 2072008174692044250, 10617253688293258156, 9597365282301235439, 13622319776822135546, 4465428530386240680} trailer 0xffffffffffffffff delay 0x02
# tst.env.scbd nb_put: actual transaction name: monitored_trans transaction_count: 5 header:0x2400000000000002 payload:0x'{15675747225488823636, 6926163692947772174, 12705926427828982419, 2072008174692044250, 10617253688293258156, 9597365282301235439, 13622319776822135546, 4465428530386240680} trailer:0xffffffffffffffff delay: 2
# tst.env.scbd abc_transaction MATCH!
# tst.gen name: abc_random_statistics_transaction transaction_count: 7 header:0x2400000000000001 payload:0x'{1467229100902232594, 7740224530706743205, 16338765942227310977, 15363529054502221040, 13072810197035783362, 15857535179559282538, 10696217793554211312, 5481926471155767219} trailer:0x0000000000000000 delay: 6
# tst.env.p0_agent.driver name: abc_random_statistics_transaction transaction_count: 9 header:0x2200000000000016 payload:0x'{6861724500082715809, 9580243129029865926, 18417783998751938297, 546902934441268584, 6111235561055403557, 10511748665792273240, 2979305099484800394, 9433332299893336637} trailer:0x0000000000000000 delay:48
# tst.env.p0_agent.monitor abc_monitor::run() header 0x2400000000000001 payload 0x'{1467229100902232594, 7740224530706743205, 16338765942227310977, 15363529054502221040, 13072810197035783362, 15857535179559282538, 10696217793554211312, 5481926471155767219} trailer 0x0000000000000000 delay 0x06
# abc_coverage::nb_put() tst.env.p0_agent.coverage called
# tst.env.coverage name: monitored_trans transaction_count: 6 header:0x2400000000000001 payload:0x'{1467229100902232594, 7740224530706743205, 16338765942227310977, 15363529054502221040, 13072810197035783362, 15857535179559282538, 10696217793554211312, 5481926471155767219} trailer:0x0000000000000000 delay: 6
# tst.env.pred name: monitored_trans transaction_count: 6 header:0x2400000000000001 payload:0x'{1467229100902232594, 7740224530706743205, 16338765942227310977, 15363529054502221040, 13072810197035783362, 15857535179559282538, 10696217793554211312, 5481926471155767219} trailer:0x0000000000000000 delay: 6
# tst.env.scbd nb_transport: expected transaction name: monitored_trans transaction_count: 6 header:0x2400000000000001 payload:0x'{1467229100902232594, 7740224530706743205, 16338765942227310977, 15363529054502221040, 13072810197035783362, 15857535179559282538, 10696217793554211312, 5481926471155767219} trailer:0x0000000000000000 delay: 6
# tst.env.p1_agent.monitor abc_monitor::run() header 0x2400000000000001 payload 0x'{1467229100902232594, 7740224530706743205, 16338765942227310977, 15363529054502221040, 13072810197035783362, 15857535179559282538, 10696217793554211312, 5481926471155767219} trailer 0x0000000000000000 delay 0x06
# tst.env.scbd nb_put: actual transaction name: monitored_trans transaction_count: 8 header:0x2400000000000001 payload:0x'{1467229100902232594, 7740224530706743205, 16338765942227310977, 15363529054502221040, 13072810197035783362, 15857535179559282538, 10696217793554211312, 5481926471155767219} trailer:0x0000000000000000 delay: 6
# tst.env.scbd abc_transaction MATCH!
# tst.env.p0_agent.monitor abc_monitor::run() header 0x2200000000000016 payload 0x'{6861724500082715809, 9580243129029865926, 18417783998751938297, 546902934441268584, 6111235561055403557, 10511748665792273240, 2979305099484800394, 9433332299893336637} trailer 0x0000000000000000 delay 0x30
# abc_coverage::nb_put() tst.env.p0_agent.coverage called
# tst.env.coverage name: monitored_trans transaction_count: 10 header:0x2200000000000016 payload:0x'{6861724500082715809, 9580243129029865926, 18417783998751938297, 546902934441268584, 6111235561055403557, 10511748665792273240, 2979305099484800394, 9433332299893336637} trailer:0x0000000000000000 delay:48
# tst.env.pred name: monitored_trans transaction_count: 10 header:0x2200000000000016 payload:0x'{6861724500082715809, 9580243129029865926, 18417783998751938297, 546902934441268584, 6111235561055403557, 10511748665792273240, 2979305099484800394, 9433332299893336637} trailer:0x0000000000000000 delay:48
# tst.env.scbd nb_transport: expected transaction name: monitored_trans transaction_count: 10 header:0x2200000000000016 payload:0x'{6861724500082715809, 9580243129029865926, 18417783998751938297, 546902934441268584, 6111235561055403557, 10511748665792273240, 2979305099484800394, 9433332299893336637} trailer:0x0000000000000000 delay:48
# tst.gen name: abc_random_statistics_transaction transaction_count: 9 header:0x2200000000000016 payload:0x'{6861724500082715809, 9580243129029865926, 18417783998751938297, 546902934441268584, 6111235561055403557, 10511748665792273240, 2979305099484800394, 9433332299893336637} trailer:0x0000000000000000 delay:48
# tst.env.p0_agent.driver name: abc_random_statistics_transaction transaction_count: 13 header:0x2100000000000004 payload:0x'{9698003073561629744, 7725543240105453590, 10071323912562639333, 10534216888031149989, 9173831333221824278, 4937985533694716324, 15257985594219754533, 17172729256241328322} trailer:0xa5a5a5a5c3c3c3c3 delay:30
# tst.env.p1_agent.monitor abc_monitor::run() header 0x2200000000000016 payload 0x'{6861724500082715809, 9580243129029865926, 18417783998751938297, 546902934441268584, 6111235561055403557, 10511748665792273240, 2979305099484800394, 9433332299893336637} trailer 0x0000000000000000 delay 0x30
# tst.env.scbd nb_put: actual transaction name: monitored_trans transaction_count: 11 header:0x2200000000000016 payload:0x'{6861724500082715809, 9580243129029865926, 18417783998751938297, 546902934441268584, 6111235561055403557, 10511748665792273240, 2979305099484800394, 9433332299893336637} trailer:0x0000000000000000 delay:48
# tst.env.scbd abc_transaction MATCH!
# tst.gen name: abc_random_statistics_transaction transaction_count: 13 header:0x2100000000000004 payload:0x'{9698003073561629744, 7725543240105453590, 10071323912562639333, 10534216888031149989, 9173831333221824278, 4937985533694716324, 15257985594219754533, 17172729256241328322} trailer:0xa5a5a5a5c3c3c3c3 delay:30
# tst.env.p0_agent.driver name: abc_random_statistics_transaction transaction_count: 15 header:0x2200000000000016 payload:0x'{17481663732239756259, 12094082985633238122, 8364084903341593160, 13332338245946585816, 15165744706250727226, 18307736387640253573, 3464285470035672587, 16819329011550194599} trailer:0x0000000000000000 delay:61
# tst.env.p0_agent.monitor abc_monitor::run() header 0x2100000000000004 payload 0x'{9698003073561629744, 7725543240105453590, 10071323912562639333, 10534216888031149989, 9173831333221824278, 4937985533694716324, 15257985594219754533, 17172729256241328322} trailer 0xa5a5a5a5c3c3c3c3 delay 0x1e
# abc_coverage::nb_put() tst.env.p0_agent.coverage called
# tst.env.coverage name: monitored_trans transaction_count: 12 header:0x2100000000000004 payload:0x'{9698003073561629744, 7725543240105453590, 10071323912562639333, 10534216888031149989, 9173831333221824278, 4937985533694716324, 15257985594219754533, 17172729256241328322} trailer:0xa5a5a5a5c3c3c3c3 delay:30
# tst.env.pred name: monitored_trans transaction_count: 12 header:0x2100000000000004 payload:0x'{9698003073561629744, 7725543240105453590, 10071323912562639333, 10534216888031149989, 9173831333221824278, 4937985533694716324, 15257985594219754533, 17172729256241328322} trailer:0xa5a5a5a5c3c3c3c3 delay:30
# tst.env.scbd nb_transport: expected transaction name: monitored_trans transaction_count: 12 header:0x2100000000000004 payload:0x'{9698003073561629744, 7725543240105453590, 10071323912562639333, 10534216888031149989, 9173831333221824278, 4937985533694716324, 15257985594219754533, 17172729256241328322} trailer:0xa5a5a5a5c3c3c3c3 delay:30
# tst.env.p1_agent.monitor abc_monitor::run() header 0x2100000000000004 payload 0x'{9698003073561629744, 7725543240105453590, 10071323912562639333, 10534216888031149989, 9173831333221824278, 4937985533694716324, 15257985594219754533, 17172729256241328322} trailer 0xa5a5a5a5c3c3c3c3 delay 0x1e
# tst.env.scbd nb_put: actual transaction name: monitored_trans transaction_count: 14 header:0x2100000000000004 payload:0x'{9698003073561629744, 7725543240105453590, 10071323912562639333, 10534216888031149989, 9173831333221824278, 4937985533694716324, 15257985594219754533, 17172729256241328322} trailer:0xa5a5a5a5c3c3c3c3 delay:30
# tst.env.scbd abc_transaction MATCH!
# tst.gen name: abc_random_statistics_transaction transaction_count: 15 header:0x2200000000000016 payload:0x'{17481663732239756259, 12094082985633238122, 8364084903341593160, 13332338245946585816, 15165744706250727226, 18307736387640253573, 3464285470035672587, 16819329011550194599} trailer:0x0000000000000000 delay:61
# tst.env.p0_agent.driver name: abc_random_statistics_transaction transaction_count: 18 header:0x2400000000000001 payload:0x'{7231141545217047987, 3786921510634981339, 11543442455559681426, 11726856742321019415, 3867665116258901792, 17053514111059665353, 15919840792151771682, 11064163306282240463} trailer:0x0000000000000000 delay:36
# tst.env.p0_agent.monitor abc_monitor::run() header 0x2200000000000016 payload 0x'{17481663732239756259, 12094082985633238122, 8364084903341593160, 13332338245946585816, 15165744706250727226, 18307736387640253573, 3464285470035672587, 16819329011550194599} trailer 0x0000000000000000 delay 0x3d
# abc_coverage::nb_put() tst.env.p0_agent.coverage called
# tst.env.coverage name: monitored_trans transaction_count: 16 header:0x2200000000000016 payload:0x'{17481663732239756259, 12094082985633238122, 8364084903341593160, 13332338245946585816, 15165744706250727226, 18307736387640253573, 3464285470035672587, 16819329011550194599} trailer:0x0000000000000000 delay:61
# tst.env.pred name: monitored_trans transaction_count: 16 header:0x2200000000000016 payload:0x'{17481663732239756259, 12094082985633238122, 8364084903341593160, 13332338245946585816, 15165744706250727226, 18307736387640253573, 3464285470035672587, 16819329011550194599} trailer:0x0000000000000000 delay:61
# tst.env.scbd nb_transport: expected transaction name: monitored_trans transaction_count: 16 header:0x2200000000000016 payload:0x'{17481663732239756259, 12094082985633238122, 8364084903341593160, 13332338245946585816, 15165744706250727226, 18307736387640253573, 3464285470035672587, 16819329011550194599} trailer:0x0000000000000000 delay:61
# tst.env.p1_agent.monitor abc_monitor::run() header 0x2200000000000016 payload 0x'{17481663732239756259, 12094082985633238122, 8364084903341593160, 13332338245946585816, 15165744706250727226, 18307736387640253573, 3464285470035672587, 16819329011550194599} trailer 0x0000000000000000 delay 0x3d
# tst.env.scbd nb_put: actual transaction name: monitored_trans transaction_count: 17 header:0x2200000000000016 payload:0x'{17481663732239756259, 12094082985633238122, 8364084903341593160, 13332338245946585816, 15165744706250727226, 18307736387640253573, 3464285470035672587, 16819329011550194599} trailer:0x0000000000000000 delay:61
# tst.env.scbd abc_transaction MATCH!
# tst.env.p0_agent.monitor abc_monitor::run() header 0x2400000000000001 payload 0x'{7231141545217047987, 3786921510634981339, 11543442455559681426, 11726856742321019415, 3867665116258901792, 17053514111059665353, 15919840792151771682, 11064163306282240463} trailer 0x0000000000000000 delay 0x24
# abc_coverage::nb_put() tst.env.p0_agent.coverage called
# tst.env.coverage name: monitored_trans transaction_count: 19 header:0x2400000000000001 payload:0x'{7231141545217047987, 3786921510634981339, 11543442455559681426, 11726856742321019415, 3867665116258901792, 17053514111059665353, 15919840792151771682, 11064163306282240463} trailer:0x0000000000000000 delay:36
# tst.env.pred name: monitored_trans transaction_count: 19 header:0x2400000000000001 payload:0x'{7231141545217047987, 3786921510634981339, 11543442455559681426, 11726856742321019415, 3867665116258901792, 17053514111059665353, 15919840792151771682, 11064163306282240463} trailer:0x0000000000000000 delay:36
# tst.env.scbd nb_transport: expected transaction name: monitored_trans transaction_count: 19 header:0x2400000000000001 payload:0x'{7231141545217047987, 3786921510634981339, 11543442455559681426, 11726856742321019415, 3867665116258901792, 17053514111059665353, 15919840792151771682, 11064163306282240463} trailer:0x0000000000000000 delay:36
# tst.gen name: abc_random_statistics_transaction transaction_count: 18 header:0x2400000000000001 payload:0x'{7231141545217047987, 3786921510634981339, 11543442455559681426, 11726856742321019415, 3867665116258901792, 17053514111059665353, 15919840792151771682, 11064163306282240463} trailer:0x0000000000000000 delay:36
# tst.env.p0_agent.driver name: abc_random_statistics_transaction transaction_count: 22 header:0x2200000000000016 payload:0x'{17793171695996984599, 17202744216471793810, 10627778641124655174, 347148131091851223, 10686767622494736700, 1378302637537111228, 1110703418583080923, 2793837753538007484} trailer:0x0000000000000000 delay:28
# tst.env.p1_agent.monitor abc_monitor::run() header 0x2400000000000001 payload 0x'{7231141545217047987, 3786921510634981339, 11543442455559681426, 11726856742321019415, 3867665116258901792, 17053514111059665353, 15919840792151771682, 11064163306282240463} trailer 0x0000000000000000 delay 0x24
# tst.env.scbd nb_put: actual transaction name: monitored_trans transaction_count: 20 header:0x2400000000000001 payload:0x'{7231141545217047987, 3786921510634981339, 11543442455559681426, 11726856742321019415, 3867665116258901792, 17053514111059665353, 15919840792151771682, 11064163306282240463} trailer:0x0000000000000000 delay:36
# tst.env.scbd abc_transaction MATCH!
# tst.gen name: abc_random_statistics_transaction transaction_count: 22 header:0x2200000000000016 payload:0x'{17793171695996984599, 17202744216471793810, 10627778641124655174, 347148131091851223, 10686767622494736700, 1378302637537111228, 1110703418583080923, 2793837753538007484} trailer:0x0000000000000000 delay:28
# tst.env.p0_agent.driver name: abc_random_statistics_transaction transaction_count: 24 header:0x2400000000000004 payload:0x'{6060081408289709476, 11723018374443761415, 3331049979736616325, 3675584193333885685, 2928913992709820244, 8566086802344716221, 3832633499300634648, 773650119192190803} trailer:0xa5a5a5a5c3c3c3c3 delay:31
# tst.env.p0_agent.monitor abc_monitor::run() header 0x2200000000000016 payload 0x'{17793171695996984599, 17202744216471793810, 10627778641124655174, 347148131091851223, 10686767622494736700, 1378302637537111228, 1110703418583080923, 2793837753538007484} trailer 0x0000000000000000 delay 0x1c
# abc_coverage::nb_put() tst.env.p0_agent.coverage called
# tst.env.coverage name: monitored_trans transaction_count: 21 header:0x2200000000000016 payload:0x'{17793171695996984599, 17202744216471793810, 10627778641124655174, 347148131091851223, 10686767622494736700, 1378302637537111228, 1110703418583080923, 2793837753538007484} trailer:0x0000000000000000 delay:28
# tst.env.pred name: monitored_trans transaction_count: 21 header:0x2200000000000016 payload:0x'{17793171695996984599, 17202744216471793810, 10627778641124655174, 347148131091851223, 10686767622494736700, 1378302637537111228, 1110703418583080923, 2793837753538007484} trailer:0x0000000000000000 delay:28
# tst.env.scbd nb_transport: expected transaction name: monitored_trans transaction_count: 21 header:0x2200000000000016 payload:0x'{17793171695996984599, 17202744216471793810, 10627778641124655174, 347148131091851223, 10686767622494736700, 1378302637537111228, 1110703418583080923, 2793837753538007484} trailer:0x0000000000000000 delay:28
# tst.env.p1_agent.monitor abc_monitor::run() header 0x2200000000000016 payload 0x'{17793171695996984599, 17202744216471793810, 10627778641124655174, 347148131091851223, 10686767622494736700, 1378302637537111228, 1110703418583080923, 2793837753538007484} trailer 0x0000000000000000 delay 0x1c
# tst.env.scbd nb_put: actual transaction name: monitored_trans transaction_count: 23 header:0x2200000000000016 payload:0x'{17793171695996984599, 17202744216471793810, 10627778641124655174, 347148131091851223, 10686767622494736700, 1378302637537111228, 1110703418583080923, 2793837753538007484} trailer:0x0000000000000000 delay:28
# tst.env.scbd abc_transaction MATCH!
# tst.gen name: abc_random_statistics_transaction transaction_count: 24 header:0x2400000000000004 payload:0x'{6060081408289709476, 11723018374443761415, 3331049979736616325, 3675584193333885685, 2928913992709820244, 8566086802344716221, 3832633499300634648, 773650119192190803} trailer:0xa5a5a5a5c3c3c3c3 delay:31
# tst.env.p0_agent.driver name: abc_random_statistics_transaction transaction_count: 27 header:0x2100000000000004 payload:0x'{124003807888722301, 15664842084758931449, 12534712704085218244, 16637975135231784446, 15169110005889212381, 4016062565054333834, 251352041580104895, 14226678457265664018} trailer:0xa5a5a5a5c3c3c3c3 delay:53
# tst.env.p0_agent.monitor abc_monitor::run() header 0x2400000000000004 payload 0x'{6060081408289709476, 11723018374443761415, 3331049979736616325, 3675584193333885685, 2928913992709820244, 8566086802344716221, 3832633499300634648, 773650119192190803} trailer 0xa5a5a5a5c3c3c3c3 delay 0x1f
# abc_coverage::nb_put() tst.env.p0_agent.coverage called
# tst.env.coverage name: monitored_trans transaction_count: 25 header:0x2400000000000004 payload:0x'{6060081408289709476, 11723018374443761415, 3331049979736616325, 3675584193333885685, 2928913992709820244, 8566086802344716221, 3832633499300634648, 773650119192190803} trailer:0xa5a5a5a5c3c3c3c3 delay:31
# tst.env.pred name: monitored_trans transaction_count: 25 header:0x2400000000000004 payload:0x'{6060081408289709476, 11723018374443761415, 3331049979736616325, 3675584193333885685, 2928913992709820244, 8566086802344716221, 3832633499300634648, 773650119192190803} trailer:0xa5a5a5a5c3c3c3c3 delay:31
# tst.env.scbd nb_transport: expected transaction name: monitored_trans transaction_count: 25 header:0x2400000000000004 payload:0x'{6060081408289709476, 11723018374443761415, 3331049979736616325, 3675584193333885685, 2928913992709820244, 8566086802344716221, 3832633499300634648, 773650119192190803} trailer:0xa5a5a5a5c3c3c3c3 delay:31
# tst.env.p1_agent.monitor abc_monitor::run() header 0x2400000000000004 payload 0x'{6060081408289709476, 11723018374443761415, 3331049979736616325, 3675584193333885685, 2928913992709820244, 8566086802344716221, 3832633499300634648, 773650119192190803} trailer 0xa5a5a5a5c3c3c3c3 delay 0x1f
# tst.env.scbd nb_put: actual transaction name: monitored_trans transaction_count: 26 header:0x2400000000000004 payload:0x'{6060081408289709476, 11723018374443761415, 3331049979736616325, 3675584193333885685, 2928913992709820244, 8566086802344716221, 3832633499300634648, 773650119192190803} trailer:0xa5a5a5a5c3c3c3c3 delay:31
# tst.env.scbd abc_transaction MATCH!
# tst.gen name: abc_random_statistics_transaction transaction_count: 27 header:0x2100000000000004 payload:0x'{124003807888722301, 15664842084758931449, 12534712704085218244, 16637975135231784446, 15169110005889212381, 4016062565054333834, 251352041580104895, 14226678457265664018} trailer:0xa5a5a5a5c3c3c3c3 delay:53
# tst.env.p0_agent.monitor abc_monitor::run() header 0x2100000000000004 payload 0x'{124003807888722301, 15664842084758931449, 12534712704085218244, 16637975135231784446, 15169110005889212381, 4016062565054333834, 251352041580104895, 14226678457265664018} trailer 0xa5a5a5a5c3c3c3c3 delay 0x35
# abc_coverage::nb_put() tst.env.p0_agent.coverage called
# tst.env.coverage name: monitored_trans transaction_count: 28 header:0x2100000000000004 payload:0x'{124003807888722301, 15664842084758931449, 12534712704085218244, 16637975135231784446, 15169110005889212381, 4016062565054333834, 251352041580104895, 14226678457265664018} trailer:0xa5a5a5a5c3c3c3c3 delay:53
# tst.env.pred name: monitored_trans transaction_count: 28 header:0x2100000000000004 payload:0x'{124003807888722301, 15664842084758931449, 12534712704085218244, 16637975135231784446, 15169110005889212381, 4016062565054333834, 251352041580104895, 14226678457265664018} trailer:0xa5a5a5a5c3c3c3c3 delay:53
# tst.env.scbd nb_transport: expected transaction name: monitored_trans transaction_count: 28 header:0x2100000000000004 payload:0x'{124003807888722301, 15664842084758931449, 12534712704085218244, 16637975135231784446, 15169110005889212381, 4016062565054333834, 251352041580104895, 14226678457265664018} trailer:0xa5a5a5a5c3c3c3c3 delay:53
# tst.env.p1_agent.monitor abc_monitor::run() header 0x2100000000000004 payload 0x'{124003807888722301, 15664842084758931449, 12534712704085218244, 16637975135231784446, 15169110005889212381, 4016062565054333834, 251352041580104895, 14226678457265664018} trailer 0xa5a5a5a5c3c3c3c3 delay 0x35
# tst.env.scbd nb_put: actual transaction name: monitored_trans transaction_count: 29 header:0x2100000000000004 payload:0x'{124003807888722301, 15664842084758931449, 12534712704085218244, 16637975135231784446, 15169110005889212381, 4016062565054333834, 251352041580104895, 14226678457265664018} trailer:0xa5a5a5a5c3c3c3c3 delay:53
# tst.env.scbd abc_transaction MATCH!
# ** Note: $finish    : top.sv(31)
#    Time: 4665 ns  Iteration: 0  Instance: /top
# 1
# Break in NamedBeginStat test_flow at top.sv line 31
# Stopped at top.sv line 31
#  do save_coverage.do abc_random_statistics_transaction
#  quit -f
# End time: 10:31:41 on Mar 30,2023, Elapsed time: 0:00:02
# Errors: 0, Warnings: 0
